{
  "users": [
    {
      "id": 1,
      "name": "bruno",
      "email": "bruno@email.com",
      "password": "bruno"
    },
    {
      "id": 2,
      "name": "nilson",
      "email": "nilson@email.com",
      "password": "nilson"
    },
    {
      "id": 3,
      "name": "test",
      "email": "test@email.com",
      "password": "test"
    }
  ]
}
